{
	"functions": {
		"api/*.php": {
			"runtime": "vercel-php@0.4.0"
		}
	},
	"routes": [
		{
			"src": "/",
			"dest": "/api/110011.php"
		},
		{
			"src": "/info",
			"dest": "/api/info.php"
		},
		{
			"src": "/login",
			"dest": "/api/login.php"
		},
		{
			"src": "/callback",
			"dest": "/api/callback.php"
		},
		{
			"src": "/view/(?<user>[^/]*)",
			"dest": "/api/view.php?user=$user"
		},
		{
			"handle": "filesystem"
		},
		{
			"src": "/(.*)",
			"status": 404,
			"dest": "/errors/404.html"
		}
	]
}